{
  "info": {
    "count": 394,
    "pages": 20,
    "next": "https://rickandmortyapi.com/api/character/?page=2",
    "prev": ""
  },
  "results": [
    {
      "id": 1,
      "name": "Rick Sanchez",
      "status": "Alive",
      "species": "Human",
      "type": "",
      "gender": "Male",
      "origin": {
        "name": "Earth",
        "url": "https://rickandmortyapi.com/api/location/1"
      },
      "location": {
        "name": "Earth",
        "url": "https://rickandmortyapi.com/api/location/20"
      },
      "image": "https://rickandmortyapi.com/api/character/avatar/1.jpeg",
      "episode": [
        "https://rickandmortyapi.com/api/episode/1",
        "https://rickandmortyapi.com/api/episode/2"
      ],
      "url": "https://rickandmortyapi.com/api/character/1",
      "created": "2017-11-04T18:48:46.250Z"
    },
    {
      "id": 2,
      "name": "Morty Smith",
      "status": "Alive",
      "species": "Human",
      "type": "",
      "gender": "Male",
      "origin": {
        "name": "Earth",
        "url": "https://rickandmortyapi.com/api/location/1"
      },
      "location": {
        "name": "Earth",
        "url": "https://rickandmortyapi.com/api/location/20"
      },
      "image": "https://rickandmortyapi.com/api/character/avatar/2.jpeg",
      "episode": [
        "https://rickandmortyapi.com/api/episode/1",
        "https://rickandmortyapi.com/api/episode/2"
      ],
      "url": "https://rickandmortyapi.com/api/character/2",
      "created": "2017-11-04T18:50:21.651Z"
    }
  ]
}